[gd_scene load_steps=4 format=2]

[ext_resource path="res://ball/ball.gd" type="Script" id=1]
[ext_resource path="res://ball/icon.png" type="Texture" id=2]

[sub_resource type="RectangleShape2D" id=1]

custom_solver_bias = 0.0
extents = Vector2( 10, 10 )

[node name="ball" type="Area2D" index="0"]

position = Vector2( 485.775, 264.162 )
input_pickable = true
gravity_vec = Vector2( 0, 1 )
gravity = 98.0
linear_damp = 0.1
angular_damp = 1.0
audio_bus_override = false
audio_bus_name = "Master"
script = ExtResource( 1 )

[node name="texture" type="Sprite" parent="." index="0"]

texture = ExtResource( 2 )

[node name="collision" type="CollisionShape2D" parent="." index="1"]

position = Vector2( 0.0191682, 0.0500628 )
scale = Vector2( 3.16224, 3.14349 )
shape = SubResource( 1 )

[connection signal="area_entered" from="." to="." method="_on_ball_area_entered"]


